BayesianIMC_Core.sim/sim_1/behav/xsim/bayesian_imc.vcd
$date
   Thu Nov 27 21:51:04 2025
$end

$version
  2025.1.0
  $dumpfile ("bayesian_imc.vcd") 
$end

$timescale
  1ps
$end

$scope module tb_bayesian_imc $end
$var reg 1 ! clk $end
$var reg 1 " rst_n $end
$var reg 1 # start $end
$var reg 8 $ input_data [7:0] $end
$var reg 2 % weight_select [1:0] $end
$var reg 8 & confidence_pattern [7:0] $end
$var wire 4 ' mean_result [3:0] $end
$var wire 4 ( confidence_level [3:0] $end
$var wire 1 ) done $end
$var wire 3 * current_state [2:0] $end
$var integer 32 + test_count [31:0] $end
$var integer 32 , pass_count [31:0] $end
$scope module dut $end
$var wire 1 - clk $end
$var wire 1 . rst_n $end
$var wire 1 / start $end
$var wire 8 0 input_data [7:0] $end
$var wire 2 1 weight_select [1:0] $end
$var wire 8 2 confidence_pattern [7:0] $end
$var reg 4 3 mean_result [3:0] $end
$var reg 4 4 confidence_level [3:0] $end
$var reg 1 5 done $end
$var reg 3 6 current_state_out [2:0] $end
$var reg 3 7 current_state [2:0] $end
$var reg 3 8 next_state [2:0] $end
$var reg 4 9 sample_count [3:0] $end
$var wire 8 : memory_out [7:0] $end
$var reg 7 ; result_sum [6:0] $end
$var wire 8 < perturbed_weight [7:0] $end
$var wire 8 = random_bits [7:0] $end
$var wire 4 > popcount_result [3:0] $end
$var integer 32 ? i [31:0] $end
$var reg 6 @ variance_sum [5:0] $end
$scope module sram_array $end
$var wire 1 - clk $end
$var wire 1 . rst_n $end
$var wire 2 1 word_sel [1:0] $end
$var reg 8 A data_out [7:0] $end
$upscope $end
$scope module random_gen $end
$var wire 1 - clk $end
$var wire 1 . rst_n $end
$var wire 1 B enable $end
$var wire 8 = random_bits [7:0] $end
$var reg 8 C lfsr_reg [7:0] $end
$upscope $end
$scope module weight_pert $end
$var wire 8 : base_weight [7:0] $end
$var wire 8 2 confidence [7:0] $end
$var wire 8 = random_mask [7:0] $end
$var wire 8 < perturbed_weight [7:0] $end
$upscope $end
$scope module popcount $end
$var wire 8 D data_in [7:0] $end
$var wire 4 > count_out [3:0] $end
$var wire 3 E sum_stage1 [2:0] $end
$var wire 3 F sum_stage2 [2:0] $end
$var wire 4 G final_sum [3:0] $end
$upscope $end
$upscope $end
$scope task run_bayesian_test $end
$var reg 8 H test_input [7:0] $end
$var reg 2 I test_weight_sel [1:0] $end
$var reg 8 J test_confidence [7:0] $end
$var reg 81 K test_name [80:0] $end
$upscope $end
$scope task wait_for_state $end
$var reg 3 L target_state [2:0] $end
$upscope $end
$upscope $end
$enddefinitions $end

#0
$dumpvars
0!
0"
0#
b0 $
b0 %
b0 &
b0 '
b0 (
0)
b0 *
b0 +
b0 ,
0-
0.
0/
b0 0
b0 1
b0 2
b0 3
b0 4
05
b0 6
b0 7
b0 8
b0 9
b0 :
b0 ;
b11111111 <
b11011010 =
b0 >
bx ?
bx @
b0 A
0B
b11011010 C
b0 D
b0 E
b0 F
b0 G
bx H
bx I
bx J
bx K
bx L
$end

#5000
1!
1-

#10000
0!
0-

#15000
1!
1-

#20000
0!
1"
0-
1.

#25000
1!
1-
b10100101 :
b1011010 <
b100 >
b10100101 A
b10100101 D
b10 E
b10 F
b100 G

#30000
0!
0-

#35000
1!
1-

#40000
0!
b10101010 $
b11111111 &
b1 +
0-
b10101010 0
b11111111 2
b10100101 <
b11110000 D
b0 E
b100 F
b10101010 H
b0 I
b11111111 J
b101100100011001010110111001100011011001010010000001010100011001010111001101110100 K
b0 L

#45000
1!
1-

#50000
0!
1#
0-
1/
b1 8

#55000
1!
1-
b1 7
b10 8

#60000
0!
0#
0-
0/

#65000
1!
b1 *
1-
b1 6
b10 7
b11 8

#70000
0!
0-

#75000
1!
b10 *
1-
b10 6
b11 7
b100 8
1B

#80000
0!
0-

#85000
1!
b11 *
1-
b11 6
b100 7
b101 8
b10110101 =
0B
b10110101 C

#90000
0!
0-

#95000
1!
b100 *
1-
b100 6
b101 7
b1 8

#100000
0!
0-

#105000
1!
b101 *
1-
b101 6
b1 7
b10 8
b1 9
b100 ;

#110000
0!
0-

#115000
1!
b1 *
1-
b1 6
b10 7
b11 8

#120000
0!
0-

#125000
1!
b10 *
1-
b10 6
b11 7
b100 8
1B

#130000
0!
0-

#135000
1!
b11 *
1-
b11 6
b100 7
b101 8
b1101011 =
0B
b1101011 C

#140000
0!
0-

#145000
1!
b100 *
1-
b100 6
b101 7
b1 8

#150000
0!
0-

#155000
1!
b101 *
1-
b101 6
b1 7
b10 8
b10 9
b1000 ;

#160000
0!
0-

#165000
1!
b1 *
1-
b1 6
b10 7
b11 8

#170000
0!
0-

#175000
1!
b10 *
1-
b10 6
b11 7
b100 8
1B

#180000
0!
0-

#185000
1!
b11 *
1-
b11 6
b100 7
b101 8
b11010110 =
0B
b11010110 C

#190000
0!
0-

#195000
1!
b100 *
1-
b100 6
b101 7
b1 8

#200000
0!
0-

#205000
1!
b101 *
1-
b101 6
b1 7
b10 8
b11 9
b1100 ;

#210000
0!
0-

#215000
1!
b1 *
1-
b1 6
b10 7
b11 8

#220000
0!
0-

#225000
1!
b10 *
1-
b10 6
b11 7
b100 8
1B

#230000
0!
0-

#235000
1!
b11 *
1-
b11 6
b100 7
b101 8
b10101100 =
0B
b10101100 C

#240000
0!
0-

#245000
1!
b100 *
1-
b100 6
b101 7
b1 8

#250000
0!
0-

#255000
1!
b101 *
1-
b101 6
b1 7
b10 8
b100 9
b10000 ;

#260000
0!
0-

#265000
1!
b1 *
1-
b1 6
b10 7
b11 8

#270000
0!
0-

#275000
1!
b10 *
1-
b10 6
b11 7
b100 8
1B

#280000
0!
0-

#285000
1!
b11 *
1-
b11 6
b100 7
b101 8
b1011001 =
0B
b1011001 C

#290000
0!
0-

#295000
1!
b100 *
1-
b100 6
b101 7
b1 8

#300000
0!
0-

#305000
1!
b101 *
1-
b101 6
b1 7
b10 8
b101 9
b10100 ;

#310000
0!
0-

#315000
1!
b1 *
1-
b1 6
b10 7
b11 8

#320000
0!
0-

#325000
1!
b10 *
1-
b10 6
b11 7
b100 8
1B

#330000
0!
0-

#335000
1!
b11 *
1-
b11 6
b100 7
b101 8
b10110010 =
0B
b10110010 C

#340000
0!
0-

#345000
1!
b100 *
1-
b100 6
b101 7
b1 8

#350000
0!
0-

#355000
1!
b101 *
1-
b101 6
b1 7
b10 8
b110 9
b11000 ;

#360000
0!
0-

#365000
1!
b1 *
1-
b1 6
b10 7
b11 8

#370000
0!
0-

#375000
1!
b10 *
1-
b10 6
b11 7
b100 8
1B

#380000
0!
0-

#385000
1!
b11 *
1-
b11 6
b100 7
b101 8
b1100101 =
0B
b1100101 C

#390000
0!
0-

#395000
1!
b100 *
1-
b100 6
b101 7
b1 8

#400000
0!
0-

#405000
1!
b101 *
1-
b101 6
b1 7
b10 8
b111 9
b11100 ;

#410000
0!
0-

#415000
1!
b1 *
1-
b1 6
b10 7
b11 8

#420000
0!
0-

#425000
1!
b10 *
1-
b10 6
b11 7
b100 8
1B

#430000
0!
0-

#435000
1!
b11 *
1-
b11 6
b100 7
b101 8
b11001011 =
0B
b11001011 C

#440000
0!
0-

#445000
1!
b100 *
1-
b100 6
b101 7
b110 8

#450000
0!
0-

#455000
1!
b101 *
1-
b101 6
b110 7
b111 8
b1000 9
b100000 ;

#460000
0!
0-

#465000
1!
b100 '
b1 (
1)
b110 *
1-
b100 3
b1 4
15
b110 6
b111 7
b0 8
b1000 ?
b100000 @

#470000
0!
0-

#475000
1!
0)
b111 *
1-
05
b111 6
b0 7

#480000
0!
0-

#485000
1!
b0 *
b1 ,
1-
b0 6
b0 9
b0 ;

#490000
0!
0-

#495000
1!
1-

#500000
0!
0-

#505000
1!
1-

#510000
0!
0-

#515000
1!
1-

#520000
0!
0-

#525000
1!
1-

#530000
0!
0-

#535000
1!
1-

#540000
0!
0-

#545000
1!
1-

#550000
0!
0-

#555000
1!
1-

#560000
0!
0-

#565000
1!
1-

#570000
0!
0-

#575000
1!
1-

#580000
0!
0-

#585000
1!
1-

#590000
0!
0-

#595000
1!
1-

#600000
0!
0-

#605000
1!
1-

#610000
0!
0-

#615000
1!
b10101010 &
b10 +
1-
b10101010 2
b11110000 <
b10100101 D
b10 E
b10 F
b10101010 J

#620000
0!
0-

#625000
1!
1#
1-
1/
b1 7
b10 8

#630000
0!
0-

#635000
1!
0#
b1 *
1-
0/
b1 6
b10 7
b11 8

#640000
0!
0-

#645000
1!
b10 *
1-
b10 6
b11 7
b100 8
1B

#650000
0!
0-

#655000
1!
b11 *
1-
b11 6
b100 7
b101 8
b10010110 =
0B
b10010110 C

#660000
0!
0-

#665000
1!
b100 *
1-
b100 6
b101 7
b1 8

#670000
0!
0-

#675000
1!
b101 *
1-
b101 6
b1 7
b10 8
b1 9
b100 ;

#680000
0!
0-

#685000
1!
b1 *
1-
b1 6
b10 7
b11 8

#690000
0!
0-

#695000
1!
b10 *
1-
b10 6
b11 7
b100 8
1B

#700000
0!
0-

#705000
1!
b11 *
1-
b11 6
b100 7
b101 8
b101100 =
0B
b101100 C

#710000
0!
0-

#715000
1!
b100 *
1-
b100 6
b101 7
b1 8

#720000
0!
0-

#725000
1!
b101 *
1-
b101 6
b1 7
b10 8
b10 9
b1000 ;

#730000
0!
0-

#735000
1!
b1 *
1-
b1 6
b10 7
b11 8

#740000
0!
0-

#745000
1!
b10 *
1-
b10 6
b11 7
b100 8
1B

#750000
0!
0-

#755000
1!
b11 *
1-
b11 6
b100 7
b101 8
b1011000 =
0B
b1011000 C

#760000
0!
0-

#765000
1!
b100 *
1-
b100 6
b101 7
b1 8

#770000
0!
0-

#775000
1!
b101 *
1-
b101 6
b1 7
b10 8
b11 9
b1100 ;

#780000
0!
0-

#785000
1!
b1 *
1-
b1 6
b10 7
b11 8

#790000
0!
0-

#795000
1!
b10 *
1-
b10 6
b11 7
b100 8
1B

#800000
0!
0-

#805000
1!
b11 *
1-
b11 6
b100 7
b101 8
b10110000 =
0B
b10110000 C

#810000
0!
0-

#815000
1!
b100 *
1-
b100 6
b101 7
b1 8

#820000
0!
0-

#825000
1!
b101 *
1-
b101 6
b1 7
b10 8
b100 9
b10000 ;

#830000
0!
0-

#835000
1!
b1 *
1-
b1 6
b10 7
b11 8

#840000
0!
0-

#845000
1!
b10 *
1-
b10 6
b11 7
b100 8
1B

#850000
0!
0-

#855000
1!
b11 *
1-
b11 6
b100 7
b101 8
b1100001 =
0B
b1100001 C

#860000
0!
0-

#865000
1!
b100 *
1-
b100 6
b101 7
b1 8

#870000
0!
0-

#875000
1!
b101 *
1-
b101 6
b1 7
b10 8
b101 9
b10100 ;

#880000
0!
0-

#885000
1!
b1 *
1-
b1 6
b10 7
b11 8

#890000
0!
0-

#895000
1!
b10 *
1-
b10 6
b11 7
b100 8
1B

#900000
0!
0-

#905000
1!
b11 *
1-
b11 6
b100 7
b101 8
b11000011 =
0B
b11000011 C

#910000
0!
0-

#915000
1!
b100 *
1-
b100 6
b101 7
b1 8

#920000
0!
0-

#925000
1!
b101 *
1-
b101 6
b1 7
b10 8
b110 9
b11000 ;

#930000
0!
0-

#935000
1!
b1 *
1-
b1 6
b10 7
b11 8

#940000
0!
0-

#945000
1!
b10 *
1-
b10 6
b11 7
b100 8
1B

#950000
0!
0-

#955000
1!
b11 *
1-
b11 6
b100 7
b101 8
b10000111 =
0B
b10000111 C

#960000
0!
0-

#965000
1!
b100 *
1-
b100 6
b101 7
b1 8

#970000
0!
0-

#975000
1!
b101 *
1-
b101 6
b1 7
b10 8
b111 9
b11100 ;

#980000
0!
0-

#985000
1!
b1 *
1-
b1 6
b10 7
b11 8

#990000
0!
0-

#995000
1!
b10 *
1-
b10 6
b11 7
b100 8
1B
